Chapter 5: Map Making (2) Spatial Data Manipulation
…
5.6.4 Calculation: Percentage

Calculate percentage of listings of different room types.

## calculate percentage for columns 7:10
df_nghbr_2[, 7:10]

## # A tibble: 77 × 4
##    `Entire home/apt` `Hotel room` `Private room` `Shared room`
##                <dbl>        <dbl>          <dbl>         <dbl>
##  1                40            0             13             0
##  2                 4            0              0             0
##  3               109            0             14             0
##  4                30            0              2             0
##  5                19            0              4             0
##  6                 3            0              3             0
##  7                 9            0              1             0
##  8               160            0              6             0
##  9               121            0              2             0
## 10               103            2             17             4
## # ℹ 67 more rows

df_nghbr_2[, 7:10] <- 100 * df_nghbr_2[, 7:10] / df_nghbr_2$n_ttl

# check results 
print(df_nghbr_2[, 7:10])

## # A tibble: 77 × 4
##    `Entire home/apt` `Hotel room` `Private room` `Shared room`
##                <dbl>        <dbl>          <dbl>         <dbl>
##  1              75.5         0             24.5           0   
##  2             100           0              0             0   
##  3              88.6         0             11.4           0   
##  4              93.8         0              6.25          0   
##  5              82.6         0             17.4           0   
##  6              50           0             50             0   
##  7              90           0             10             0   
##  8              96.4         0              3.61          0   
##  9              98.4         0              1.63          0   
## 10              81.7         1.59          13.5           3.17
## # ℹ 67 more rows
…
